Analysescript für die Datenauswertung der Erhebung zum Thema Clickbait
…
##               pol cult  eco
## Signal/Noise 0.18  0.2 0.19
## 
## Scale intercorrelations corrected for attenuation 
##  raw correlations below the diagonal, alpha on the diagonal 
##  corrected correlations above the diagonal:
##         pol cult   eco
## pol   0.152 1.17 -0.36
## cult  0.185 0.16  1.07
## eco  -0.056 0.18  0.16
## 
##  In order to see the item by scale loadings and frequency counts of the data
##  print with the short option = FALSE

## # A tibble: 121 x 135
##    Gender   Age Ausbildung BeruflTaetigkeit BigFive10_1 BigFive10_2
##    <fct>  <dbl> <ord>      <chr>            <ord>       <ord>      
##  1 Männl…    19 Fachabitu… Student          Trifft ehe… Trifft vol…
##  2 Weibl…    22 Fachabitu… Studentin        Trifft ehe… Trifft ehe…
##  3 Männl…    22 Studienab… Student          Trifft ehe… Trifft ehe…
##  4 Männl…    31 Berufsaus… Konstrukteur     Trifft nic… Trifft zu  
##  5 Weibl…    26 Studienab… Studentin        Trifft ehe… Trifft ehe…
##  6 Weibl…    23 Fachabitu… Studentin        Trifft nic… Trifft ehe…
##  7 Männl…    24 Studienab… Student          Trifft übe… Trifft ehe…
##  8 Weibl…    25 Studienab… Freier Mitarbei… Trifft ehe… Trifft ehe…
##  9 Weibl…    24 Studienab… Studentin mit N… Trifft übe… Trifft zu  
## 10 Weibl…    21 Fachabitu… Student          Trifft ehe… Trifft ehe…
## # … with 111 more rows, and 129 more variables: BigFive10_3 <ord>,
## #   BigFive10_4 <ord>, BigFive10_5 <ord>, BigFive10_6 <ord>,
## #   BigFive10_7 <ord>, BigFive10_8 <ord>, BigFive10_9 <ord>,
## #   BigFive10_10 <ord>, InternetSkillScale_1 <ord>,
## #   InternetSkillScale_2 <ord>, InternetSkillScale_3 <ord>,
## #   InternetSkillScale_4 <ord>, InternetSkillScale_5 <ord>,
## #   InternetSkillScale_6 <ord>, InternetSkillScale_7 <ord>,
## #   InternetSkillScale_8 <ord>, Schlagzeile2 <chr>,
## #   Schlagzeile2SemDiff_1 <ord>, Schlagzeile2SemDiff_2 <ord>,
…
## 
## Scale intercorrelations corrected for attenuation 
##  raw correlations below the diagonal, alpha on the diagonal 
##  corrected correlations above the diagonal:
##        bfio   bfic   bfie   bfia   bfin
## bfio 0.6358  0.178  0.155  0.403  0.015
## bfic 0.0969  0.464  0.287 -0.033 -0.189
## bfie 0.1070  0.169  0.752  0.029 -0.516
## bfia 0.1436 -0.010  0.011  0.199 -0.068
## bfin 0.0093 -0.097 -0.336 -0.023  0.566
## 
##  In order to see the item by scale loadings and frequency counts of the data
##  print with the short option = FALSE

## # A tibble: 121 x 140
##    Gender   Age Ausbildung BeruflTaetigkeit BigFive10_1 BigFive10_2
##    <fct>  <dbl> <ord>      <chr>            <ord>       <ord>      
##  1 Männl…    19 Fachabitu… Student          Trifft ehe… Trifft vol…
##  2 Weibl…    22 Fachabitu… Studentin        Trifft ehe… Trifft ehe…
##  3 Männl…    22 Studienab… Student          Trifft ehe… Trifft ehe…
##  4 Männl…    31 Berufsaus… Konstrukteur     Trifft nic… Trifft zu  
##  5 Weibl…    26 Studienab… Studentin        Trifft ehe… Trifft ehe…
##  6 Weibl…    23 Fachabitu… Studentin        Trifft nic… Trifft ehe…
##  7 Männl…    24 Studienab… Student          Trifft übe… Trifft ehe…
##  8 Weibl…    25 Studienab… Freier Mitarbei… Trifft ehe… Trifft ehe…
##  9 Weibl…    24 Studienab… Studentin mit N… Trifft übe… Trifft zu  
## 10 Weibl…    21 Fachabitu… Student          Trifft ehe… Trifft ehe…
## # … with 111 more rows, and 134 more variables: BigFive10_3 <ord>,
## #   BigFive10_4 <ord>, BigFive10_5 <ord>, BigFive10_6 <ord>,
## #   BigFive10_7 <ord>, BigFive10_8 <ord>, BigFive10_9 <ord>,
## #   BigFive10_10 <ord>, InternetSkillScale_1 <ord>,
## #   InternetSkillScale_2 <ord>, InternetSkillScale_3 <ord>,
## #   InternetSkillScale_4 <ord>, InternetSkillScale_5 <ord>,
## #   InternetSkillScale_6 <ord>, InternetSkillScale_7 <ord>,
## #   InternetSkillScale_8 <ord>, Schlagzeile2 <chr>,
## #   Schlagzeile2SemDiff_1 <ord>, Schlagzeile2SemDiff_2 <ord>,
…
## 
## Signal/Noise based upon av.r : 
##              skills
## Signal/Noise    3.7
## 
## Scale intercorrelations corrected for attenuation 
##  raw correlations below the diagonal, alpha on the diagonal 
##  corrected correlations above the diagonal:
##        skills
## skills   0.79
## 
##  In order to see the item by scale loadings and frequency counts of the data
##  print with the short option = FALSE

## # A tibble: 121 x 141
##    Gender   Age Ausbildung BeruflTaetigkeit BigFive10_1 BigFive10_2
##    <fct>  <dbl> <ord>      <chr>            <ord>       <ord>      
##  1 Männl…    19 Fachabitu… Student          Trifft ehe… Trifft vol…
##  2 Weibl…    22 Fachabitu… Studentin        Trifft ehe… Trifft ehe…
##  3 Männl…    22 Studienab… Student          Trifft ehe… Trifft ehe…
##  4 Männl…    31 Berufsaus… Konstrukteur     Trifft nic… Trifft zu  
##  5 Weibl…    26 Studienab… Studentin        Trifft ehe… Trifft ehe…
##  6 Weibl…    23 Fachabitu… Studentin        Trifft nic… Trifft ehe…
##  7 Männl…    24 Studienab… Student          Trifft übe… Trifft ehe…
##  8 Weibl…    25 Studienab… Freier Mitarbei… Trifft ehe… Trifft ehe…
##  9 Weibl…    24 Studienab… Studentin mit N… Trifft übe… Trifft zu  
## 10 Weibl…    21 Fachabitu… Student          Trifft ehe… Trifft ehe…
## # … with 111 more rows, and 135 more variables: BigFive10_3 <ord>,
## #   BigFive10_4 <ord>, BigFive10_5 <ord>, BigFive10_6 <ord>,
## #   BigFive10_7 <ord>, BigFive10_8 <ord>, BigFive10_9 <ord>,
## #   BigFive10_10 <ord>, InternetSkillScale_1 <ord>,
## #   InternetSkillScale_2 <ord>, InternetSkillScale_3 <ord>,
## #   InternetSkillScale_4 <ord>, InternetSkillScale_5 <ord>,
## #   InternetSkillScale_6 <ord>, InternetSkillScale_7 <ord>,
## #   InternetSkillScale_8 <ord>, Schlagzeile2 <chr>,
## #   Schlagzeile2SemDiff_1 <ord>, Schlagzeile2SemDiff_2 <ord>,
…
## sz3   0.631
## sz4  -0.014
## sz5   0.703
## sz6   0.276
## sz7   0.255
## sz8   0.219
## sz9   0.302
## sz10  0.702
## sz11  0.315
## sz12  0.815
## 
##  In order to see the item by scale loadings and frequency counts of the data
##  print with the short option = FALSE

## # A tibble: 121 x 153
##    Gender   Age Ausbildung BeruflTaetigkeit BigFive10_1 BigFive10_2
##    <fct>  <dbl> <ord>      <chr>            <ord>       <ord>      
##  1 Männl…    19 Fachabitu… Student          Trifft ehe… Trifft vol…
##  2 Weibl…    22 Fachabitu… Studentin        Trifft ehe… Trifft ehe…
##  3 Männl…    22 Studienab… Student          Trifft ehe… Trifft ehe…
##  4 Männl…    31 Berufsaus… Konstrukteur     Trifft nic… Trifft zu  
##  5 Weibl…    26 Studienab… Studentin        Trifft ehe… Trifft ehe…
##  6 Weibl…    23 Fachabitu… Studentin        Trifft nic… Trifft ehe…
##  7 Männl…    24 Studienab… Student          Trifft übe… Trifft ehe…
##  8 Weibl…    25 Studienab… Freier Mitarbei… Trifft ehe… Trifft ehe…
##  9 Weibl…    24 Studienab… Studentin mit N… Trifft übe… Trifft zu  
## 10 Weibl…    21 Fachabitu… Student          Trifft ehe… Trifft ehe…
## # … with 111 more rows, and 147 more variables: BigFive10_3 <ord>,
## #   BigFive10_4 <ord>, BigFive10_5 <ord>, BigFive10_6 <ord>,
## #   BigFive10_7 <ord>, BigFive10_8 <ord>, BigFive10_9 <ord>,
## #   BigFive10_10 <ord>, InternetSkillScale_1 <ord>,
## #   InternetSkillScale_2 <ord>, InternetSkillScale_3 <ord>,
## #   InternetSkillScale_4 <ord>, InternetSkillScale_5 <ord>,
## #   InternetSkillScale_6 <ord>, InternetSkillScale_7 <ord>,
## #   InternetSkillScale_8 <ord>, Schlagzeile2 <chr>,
## #   Schlagzeile2SemDiff_1 <ord>, Schlagzeile2SemDiff_2 <ord>,
…
